…
  ls_fit = lm(yi ~ xi1, data = sim_data)
  
  tibble(
    beta1_hat = broom::tidy(ls_fit)$estimate[2],
    p_value = broom::tidy(ls_fit)$p.value[2],
    alpha = 0.5
  )
}

rerun(10000, sim_regression()) %>% 
  bind_rows
```

    ## # A tibble: 10,000 x 3
    ##    beta1_hat  p_value alpha
    ##        <dbl>    <dbl> <dbl>
    ##  1     14.3  0.207      0.5
    ##  2      8.70 0.182      0.5
    ##  3      4.26 0.606      0.5
    ##  4     21.4  0.000149   0.5
    ##  5     -8.42 0.471      0.5
    ##  6    -10.6  0.219      0.5
    ##  7    -13.9  0.192      0.5
    ##  8      2.34 0.769      0.5
    ##  9      4.07 0.670      0.5
    ## 10     17.0  0.134      0.5
    ## # … with 9,990 more rows
…
